…
hom_summary
```

    ## # A tibble: 51 × 4
    ##    city_state     hom_total hom_unsolved home_solved
    ##    <chr>              <int>        <int>       <int>
    ##  1 Albuquerque,NM       378          146         232
    ##  2 Atlanta,GA           973          373         600
    ##  3 Baltimore,MD        2827         1825        1002
    ##  4 Baton Rouge,LA       424          196         228
    ##  5 Birmingham,AL        800          347         453
    ##  6 Boston,MA            614          310         304
    ##  7 Buffalo,NY           521          319         202
    ##  8 Charlotte,NC         687          206         481
    ##  9 Chicago,IL          5535         4073        1462
    ## 10 Cincinnati,OH        694          309         385
    ## # ℹ 41 more rows
…
